<svg width="45" height="49" viewBox="0 0 45 49" fill="none" xmlns="http://www.w3.org/2000/svg">
<path d="M22.2427 25.6381C22.6759 25.7248 23.1091 25.3782 23.1957 24.8583C23.2824 24.4251 22.9358 23.9919 22.416 23.9053C21.9827 23.9053 21.5495 24.1652 21.4629 24.6851C21.4629 25.1183 21.8095 25.5515 22.2427 25.6381Z" fill="url(#paint0_radial_14516_4999)"/>
<path d="M22.7603 20.0075C22.1538 19.9209 21.5473 20.4407 21.4607 21.0472C21.374 21.6537 21.8939 22.2602 22.5004 22.3468C23.1069 22.4335 23.7134 21.9137 23.8 21.3072C23.8866 20.614 23.4534 20.0942 22.7603 20.0075Z" fill="url(#paint1_radial_14516_4999)"/>
<path d="M22.1568 27.113C21.5503 27.0264 20.9438 27.5462 20.8571 28.1527C20.7705 28.7592 21.2904 29.3657 21.8968 29.4524C22.5033 29.539 23.1098 29.0191 23.1965 28.4126C23.1965 27.8061 22.7633 27.1996 22.1568 27.113Z" fill="url(#paint2_radial_14516_4999)"/>
<path d="M20.0768 21.7421C19.557 21.3956 18.7772 21.4822 18.4306 22.002C18.084 22.5219 18.1707 23.3017 18.6905 23.6483C19.2104 23.9948 19.9902 23.9082 20.3367 23.3883C20.7699 22.8685 20.5967 22.0887 20.0768 21.7421Z" fill="url(#paint3_radial_14516_4999)"/>
<path d="M25.9674 25.9013C25.4476 25.5547 24.6678 25.6414 24.3212 26.1612C23.9747 26.6811 24.0613 27.4609 24.5812 27.8075C25.101 28.154 25.8808 28.0674 26.2274 27.5475C26.5739 26.941 26.4873 26.2479 25.9674 25.9013Z" fill="url(#paint4_radial_14516_4999)"/>
<path d="M18.6033 25.2046C17.9969 25.4645 17.7369 26.1577 17.9968 26.7642C18.2568 27.3707 18.9499 27.6306 19.5564 27.3707C20.1629 27.1108 20.4228 26.4176 20.1629 25.8111C19.903 25.1179 19.2098 24.858 18.6033 25.2046Z" fill="url(#paint5_radial_14516_4999)"/>
<path d="M26.0506 24.3417C26.6571 24.0817 26.917 23.3886 26.6571 22.7821C26.3971 22.1755 25.704 21.9156 25.0975 22.1756C24.491 22.4355 24.2311 23.1286 24.491 23.7351C24.7509 24.3416 25.5307 24.6016 26.0506 24.3417Z" fill="url(#paint6_radial_14516_4999)"/>
<path d="M39.4784 27.4601C38.8721 26.8536 38.2658 26.4204 37.5729 26.1604C38.2658 25.9871 39.0453 25.7272 39.7383 25.2074C40.9509 24.3409 42.2501 22.1749 42.7697 20.3554C43.5493 17.5828 44.2422 14.637 44.2422 14.637C44.2422 14.637 41.5572 13.2507 38.8721 12.0377C37.2264 11.2579 34.7146 10.8247 33.2422 11.1713C32.4627 11.3445 31.7697 11.7778 31.1634 12.211C31.4233 11.5178 31.5099 10.738 31.4233 9.87162C31.3367 8.3987 30.0375 6.14599 28.7383 4.84635C26.7461 2.76693 24.4942 0.6875 24.4942 0.6875C24.4942 0.6875 21.8957 2.33371 19.5571 3.97992C18.0847 5.01963 16.439 7.01242 16.006 8.3987C15.7461 9.17848 15.7461 9.95826 15.8327 10.738C15.3131 10.2182 14.7068 9.69833 13.9272 9.35176C12.628 8.74526 10.0296 8.65862 8.21069 9.17848C5.43904 9.87162 2.49416 10.738 2.49416 10.738C2.49416 10.738 2.66738 13.7705 2.92723 16.6297C3.10046 18.4492 3.9666 20.8752 5.00597 21.9149C5.61227 22.5214 6.21857 22.9547 6.91148 23.2146C6.21857 23.3879 5.43904 23.6478 4.74612 24.1677C3.53353 25.0341 2.23431 27.2001 1.71463 29.0196C0.935101 31.7922 0.242188 34.7381 0.242188 34.7381C0.242188 34.7381 2.92723 36.1243 5.61227 37.3373C7.25794 38.1171 9.76975 38.5503 11.2422 38.2038C12.0217 38.0305 12.7146 37.5973 13.3209 37.164C13.0611 37.8572 12.9745 38.637 13.0611 39.5034C13.1477 40.9763 14.4469 43.229 15.7461 44.5287C17.7383 46.6081 19.9902 48.6875 19.9902 48.6875C19.9902 48.6875 22.5886 47.0413 24.9272 45.3951C26.3997 44.3554 28.0453 42.3626 28.4784 40.9763C28.7383 40.1965 28.7382 39.4168 28.6516 38.637C29.1713 39.1568 29.7776 39.6767 30.5571 40.0232C31.8564 40.6297 34.4548 40.7164 36.2737 40.1965C39.0453 39.5034 41.9902 38.637 41.9902 38.637C41.9902 38.637 41.817 35.6045 41.5571 32.7453C41.4705 30.9258 40.6044 28.4998 39.4784 27.4601ZM37.6595 22.3482C37.4863 23.2146 33.7619 23.7344 33.7619 23.7344L37.2264 24.6009C36.5335 25.2074 33.7619 24.9474 32.4627 24.7742V25.7272C32.4627 25.7272 32.4627 25.7272 32.5493 25.7272C32.4627 25.7272 32.4627 25.7272 32.4627 25.7272L32.2894 26.6803C33.5886 26.7669 36.3603 26.9402 36.88 27.72L33.3288 27.8933C33.3288 27.8933 36.88 29.1063 36.88 29.9727C36.88 30.8391 33.502 29.6261 33.502 29.6261C33.502 29.6261 37.1398 31.8789 36.88 32.572C36.6201 33.2651 32.8091 31.1857 32.8091 31.1857C32.8091 31.1857 36.2737 34.3048 36.5335 34.998C35.754 34.9113 31.6831 32.7453 31.6831 32.7453C31.6831 32.7453 34.8879 35.6045 34.3682 36.1243C33.8485 36.6442 30.4705 33.9583 30.4705 33.9583C30.4705 33.9583 32.7225 36.7308 31.943 36.9907C31.0768 37.3373 28.8249 34.3048 28.8249 34.3048L29.8642 37.6839C28.9981 37.424 27.8721 34.8247 27.3524 33.6117L26.5729 34.1316C26.5729 34.1316 26.5729 34.1316 26.5729 34.2182L26.4863 34.1316L25.6201 34.4781C26.2264 35.6045 27.439 38.1171 27.006 38.9835L25.1005 36.0377C25.1005 36.0377 25.88 39.7633 25.1005 40.1965C24.3209 40.6297 23.7146 37.0774 23.7146 37.0774C23.7146 37.0774 23.628 41.3229 22.8485 41.4095C22.069 41.4962 22.069 37.2507 22.069 37.2507C22.069 37.2507 21.1162 41.7561 20.6831 42.3626C20.3367 41.6695 20.2501 37.0774 20.2501 37.0774C20.2501 37.0774 19.3839 41.3229 18.691 41.063C17.9981 40.803 18.691 36.6442 18.691 36.6442C18.691 36.6442 17.4784 40.0233 16.7855 39.4168C16.0926 38.8969 17.565 35.3445 17.565 35.3445L15.1398 37.9438C14.9666 37.0774 16.6123 34.8247 17.3918 33.785L16.6123 33.3518C16.6123 33.3518 16.6123 33.3518 16.5257 33.4384C16.5257 33.3518 16.5257 33.3518 16.5257 33.3518L15.8327 32.7453C15.1398 33.8716 13.5808 36.1243 12.628 36.211L14.2737 33.0052C14.2737 33.0052 11.4154 35.5178 10.7225 35.0846C9.94297 34.6514 12.7146 32.3121 12.7146 32.3121C12.7146 32.3121 8.99022 34.3915 8.47053 33.785C8.03746 33.1785 11.6753 31.0124 11.6753 31.0124C11.6753 31.0124 7.25794 32.3987 6.47841 32.3987C6.91148 31.7922 10.8957 29.3662 10.8957 29.3662C10.8957 29.3662 6.82486 30.7525 6.65164 29.9727C6.47841 29.2796 10.4627 27.72 10.4627 27.72C10.4627 27.72 6.91148 28.3265 7.08471 27.4601C7.25794 26.5936 10.9823 26.0738 10.9823 26.0738L7.51778 25.2074C8.21069 24.6009 10.9823 24.8608 12.2816 25.0341V24.081C12.2816 24.081 12.2816 24.081 12.1949 24.081C12.2816 24.081 12.2816 24.081 12.2816 24.081L12.4548 23.1279C11.1556 23.0413 8.38392 22.868 7.86423 22.0882L11.4154 21.9149C11.4154 21.9149 7.86423 20.7019 7.86423 19.8355C7.86423 18.9691 11.2422 20.1821 11.2422 20.1821C11.2422 20.1821 7.60439 17.9294 7.86423 17.2362C8.12408 16.5431 11.9351 18.6225 11.9351 18.6225C11.9351 18.6225 8.47053 15.5034 8.21069 14.8102C8.99022 14.8969 13.0611 17.063 13.0611 17.063C13.0611 17.063 9.85636 14.2037 10.376 13.6839C10.8957 13.164 14.2737 15.85 14.2737 15.85C14.2737 15.85 12.0217 13.0774 12.8012 12.8175C13.6674 12.4709 15.9194 15.5034 15.9194 15.5034L14.88 12.1243C15.7461 12.3843 16.8721 14.9835 17.3918 16.1965L18.1713 15.7633C18.1713 15.7633 18.1713 15.7633 18.1713 15.6767L18.2579 15.7633L19.1241 15.4167C18.5178 14.2904 17.3052 11.7778 17.7383 10.9113L19.6438 13.8572C19.6438 13.8572 18.8642 10.1316 19.6438 9.69834C20.4233 9.26513 21.0296 12.8175 21.0296 12.8175C21.0296 12.8175 21.1162 8.57198 21.8957 8.48533C22.6753 8.39869 22.6753 12.6442 22.6753 12.6442C22.6753 12.6442 23.628 8.13877 24.0611 7.53227C24.4075 8.22542 24.4942 12.8175 24.4942 12.8175C24.4942 12.8175 25.3603 8.57199 26.0532 8.83191C26.7461 9.09184 26.0532 13.2507 26.0532 13.2507C26.0532 13.2507 27.2658 9.87162 27.9587 10.4781C28.6516 10.998 27.1792 14.5503 27.1792 14.5503L29.6044 11.951C29.7776 12.8175 28.132 15.0702 27.3524 16.1099L28.132 16.5431C28.132 16.5431 28.132 16.5431 28.2186 16.4565C28.2186 16.5431 28.2186 16.5431 28.2186 16.5431L28.9115 17.1496C29.6044 16.0232 31.1634 13.7705 32.1162 13.6839L30.4705 16.8897C30.4705 16.8897 33.3288 14.377 34.0217 14.8102C34.8012 15.2435 32.0296 17.5828 32.0296 17.5828C32.0296 17.5828 35.754 15.5034 36.2737 16.1099C36.7068 16.7164 33.069 18.8824 33.069 18.8824C33.069 18.8824 37.4863 17.4962 38.2658 17.4962C37.8327 18.1027 33.8485 20.5287 33.8485 20.5287C33.8485 20.5287 37.9194 19.1424 38.0926 19.9222C38.2658 20.6153 34.2816 22.1749 34.2816 22.1749C34.2816 22.1749 37.8327 21.4817 37.6595 22.3482Z" fill="url(#paint7_radial_14516_4999)"/>
<defs>
<radialGradient id="paint0_radial_14516_4999" cx="0" cy="0" r="1" gradientUnits="userSpaceOnUse" gradientTransform="translate(22.336 24.7783) rotate(90) scale(0.873069)">
<stop stop-color="#FFD5E0"/>
<stop offset="1" stop-color="#FF95B2"/>
</radialGradient>
<radialGradient id="paint1_radial_14516_4999" cx="0" cy="0" r="1" gradientUnits="userSpaceOnUse" gradientTransform="translate(22.6311 21.1772) rotate(90) scale(1.17914 1.17991)">
<stop stop-color="#FFD5E0"/>
<stop offset="1" stop-color="#FF95B2"/>
</radialGradient>
<radialGradient id="paint2_radial_14516_4999" cx="0" cy="0" r="1" gradientUnits="userSpaceOnUse" gradientTransform="translate(22.0221 28.2827) rotate(90) scale(1.17916 1.17442)">
<stop stop-color="#FFD5E0"/>
<stop offset="1" stop-color="#FF95B2"/>
</radialGradient>
<radialGradient id="paint3_radial_14516_4999" cx="0" cy="0" r="1" gradientUnits="userSpaceOnUse" gradientTransform="translate(19.4025 22.6952) rotate(90) scale(1.16101 1.17981)">
<stop stop-color="#FFD5E0"/>
<stop offset="1" stop-color="#FF95B2"/>
</radialGradient>
<radialGradient id="paint4_radial_14516_4999" cx="0" cy="0" r="1" gradientUnits="userSpaceOnUse" gradientTransform="translate(25.2743 26.8544) rotate(90) scale(1.16102)">
<stop stop-color="#FFD5E0"/>
<stop offset="1" stop-color="#FF95B2"/>
</radialGradient>
<radialGradient id="paint5_radial_14516_4999" cx="0" cy="0" r="1" gradientUnits="userSpaceOnUse" gradientTransform="translate(19.0799 26.2614) rotate(90) scale(1.20965 1.1834)">
<stop stop-color="#FFD5E0"/>
<stop offset="1" stop-color="#FF95B2"/>
</radialGradient>
<radialGradient id="paint6_radial_14516_4999" cx="0" cy="0" r="1" gradientUnits="userSpaceOnUse" gradientTransform="translate(25.574 23.2586) rotate(90) scale(1.18341)">
<stop stop-color="#FFD5E0"/>
<stop offset="1" stop-color="#FF95B2"/>
</radialGradient>
<radialGradient id="paint7_radial_14516_4999" cx="0" cy="0" r="1" gradientUnits="userSpaceOnUse" gradientTransform="translate(22.2422 24.6875) rotate(90) scale(24 22)">
<stop stop-color="#FFD5E0"/>
<stop offset="1" stop-color="#FF95B2"/>
</radialGradient>
</defs>
</svg>
