<svg width="533" height="247" viewBox="0 0 533 247" fill="none" xmlns="http://www.w3.org/2000/svg">
<rect opacity="0.1" y="83.6667" width="349" height="163.333" fill="#00A550"/>
<rect opacity="0.05" x="184" width="349" height="164.272" fill="#00A550"/>
</svg>
