<?xml version="1.0" encoding="iso-8859-1"?>
<!-- Generator: Adobe Illustrator 19.0.0, SVG Export Plug-In . SVG Version: 6.00 Build 0)  -->
<svg version="1.1" id="Capa_1" xmlns="http://www.w3.org/2000/svg" xmlns:xlink="http://www.w3.org/1999/xlink" x="0px" y="0px"
	 viewBox="0 0 512 512" style="enable-background:new 0 0 512 512;" xml:space="preserve">
<path style="fill:#ECEFF1;" d="M480,80H32C14.368,80,0,94.368,0,112v288c0,17.664,14.368,32,32,32h448c17.664,0,32-14.336,32-32V112
	C512,94.368,497.664,80,480,80z"/>
<g>
	<path style="fill:#2196F3;" d="M272,176h-64c-8.832,0-16,7.168-16,16s7.168,16,16,16h16v112c0,8.832,7.168,16,16,16s16-7.168,16-16
		V208h16c8.832,0,16-7.168,16-16S280.832,176,272,176z"/>
	<path style="fill:#2196F3;" d="M404.64,176.672c-6.848-2.112-14.016,0.576-17.952,6.432L368,211.168l-18.688-28.032
		c-3.904-5.856-11.136-8.512-17.952-6.432C324.64,178.72,320,184.96,320,192v128c0,8.832,7.168,16,16,16s16-7.168,16-16v-75.168
		l2.688,4.032c5.952,8.896,20.672,8.896,26.624,0l2.688-4.032V320c0,8.832,7.168,16,16,16s16-7.168,16-16V192
		C416,184.96,411.36,178.72,404.64,176.672z"/>
	<path style="fill:#2196F3;" d="M108.128,335.52c8.512,2.016,17.248-3.072,19.392-11.648L132.48,304h23.04l4.96,19.872
		C162.304,331.168,168.8,336,176,336c1.28,0,2.592-0.16,3.904-0.48c8.576-2.144,13.792-10.848,11.648-19.392l-32-128
		c-3.552-14.24-27.456-14.24-31.04,0l-32,128C94.336,324.672,99.552,333.376,108.128,335.52z M147.52,272h-7.04l3.52-14.016
		L147.52,272z"/>
</g>
<g>
</g>
<g>
</g>
<g>
</g>
<g>
</g>
<g>
</g>
<g>
</g>
<g>
</g>
<g>
</g>
<g>
</g>
<g>
</g>
<g>
</g>
<g>
</g>
<g>
</g>
<g>
</g>
<g>
</g>
</svg>
