<svg width="18" height="18" viewBox="0 0 18 18" fill="none" xmlns="http://www.w3.org/2000/svg">
<path d="M5.79941 11.6372H5.80023C5.80092 11.6372 5.80161 11.6371 5.80229 11.6371H15.3633C15.5987 11.6371 15.8056 11.4809 15.8703 11.2546L17.9797 3.87181C18.0251 3.71265 17.9933 3.54153 17.8937 3.40942C17.794 3.27731 17.6381 3.19958 17.4727 3.19958H4.58322L4.20625 1.50316C4.15256 1.26187 3.9386 1.09021 3.69141 1.09021H0.527344C0.236069 1.09021 0 1.32628 0 1.61755C0 1.90883 0.236069 2.1449 0.527344 2.1449H3.26843C3.33518 2.44551 5.07239 10.2631 5.17236 10.7129C4.61192 10.9565 4.21875 11.5153 4.21875 12.1644C4.21875 13.0367 4.92847 13.7465 5.80078 13.7465H15.3633C15.6546 13.7465 15.8906 13.5104 15.8906 13.2191C15.8906 12.9278 15.6546 12.6918 15.3633 12.6918H5.80078C5.51006 12.6918 5.27344 12.4552 5.27344 12.1644C5.27344 11.8741 5.50923 11.6379 5.79941 11.6372ZM16.7735 4.25427L14.9654 10.5824H6.22376L4.81751 4.25427H16.7735Z" fill="black"/>
<path d="M5.27344 15.3282C5.27344 16.2006 5.98315 16.9103 6.85547 16.9103C7.72778 16.9103 8.4375 16.2006 8.4375 15.3282C8.4375 14.4559 7.72778 13.7462 6.85547 13.7462C5.98315 13.7462 5.27344 14.4559 5.27344 15.3282ZM6.85547 14.8009C7.14619 14.8009 7.38281 15.0375 7.38281 15.3282C7.38281 15.619 7.14619 15.8556 6.85547 15.8556C6.56474 15.8556 6.32813 15.619 6.32813 15.3282C6.32813 15.0375 6.56474 14.8009 6.85547 14.8009Z" fill="black"/>
<path d="M12.7261 15.3282C12.7261 16.2006 13.4358 16.9103 14.3081 16.9103C15.1804 16.9103 15.8901 16.2006 15.8901 15.3282C15.8901 14.4559 15.1804 13.7462 14.3081 13.7462C13.4358 13.7462 12.7261 14.4559 12.7261 15.3282ZM14.3081 14.8009C14.5988 14.8009 14.8354 15.0375 14.8354 15.3282C14.8354 15.619 14.5988 15.8556 14.3081 15.8556C14.0174 15.8556 13.7808 15.619 13.7808 15.3282C13.7808 15.0375 14.0174 14.8009 14.3081 14.8009Z" fill="black"/>
</svg>
