<svg width="20" height="16" viewBox="0 0 20 16" fill="none" xmlns="http://www.w3.org/2000/svg">
<circle cx="8" cy="8" r="8" fill="#00A550"/>
<path d="M11.4104 4.04348C10.4035 3.86302 9.47615 3.31309 9.01301 3.00136C8.71039 2.79767 8.35847 2.69 7.99525 2.69C7.63203 2.69 7.28008 2.79767 6.97748 3.00134C6.51434 3.31307 5.58701 3.86302 4.58005 4.04348C3.98366 4.15036 3.55078 4.66636 3.55078 5.27041V7.77651C3.55078 8.60441 3.78242 9.41145 4.23921 10.1753C4.59659 10.7728 5.09175 11.3439 5.71094 11.8726C6.75206 12.7617 7.783 13.2254 7.82635 13.2447L7.99523 13.3198L8.1641 13.2447C8.20747 13.2254 9.23839 12.7617 10.2795 11.8726C10.8987 11.3439 11.3939 10.7728 11.7512 10.1753C12.2081 9.41147 12.4397 8.60441 12.4397 7.77651V5.27043C12.4397 4.66636 12.0068 4.15036 11.4104 4.04348Z" fill="white"/>
<path d="M9.8062 7.3999H8.59884V6.19389C8.59884 6.14247 8.57841 6.09317 8.54207 6.05679C8.50574 6.02044 8.45643 6 8.40504 6H7.59496C7.54357 6 7.49426 6.02044 7.45793 6.05679C7.42157 6.09317 7.40116 6.14247 7.40116 6.19389V7.3999H6.1938C6.1424 7.3999 6.0931 7.42034 6.05676 7.45669C6.02041 7.49307 6 7.54238 6 7.5938V8.4062C6 8.43166 6.00502 8.45689 6.01475 8.48041C6.0245 8.50393 6.03876 8.52531 6.05676 8.54331C6.07475 8.56132 6.09612 8.57559 6.11963 8.58534C6.14314 8.59509 6.16835 8.6001 6.1938 8.6001H7.40116V9.80611C7.40116 9.85753 7.42157 9.90685 7.45793 9.94321C7.49426 9.97958 7.54357 10 7.59496 10H8.40504C8.45643 10 8.50574 9.97958 8.54207 9.94321C8.57841 9.90685 8.59884 9.85753 8.59884 9.80611V8.6001H9.8062C9.8576 8.6001 9.9069 8.57968 9.94324 8.54331C9.97957 8.50695 10 8.45762 10 8.4062V7.5938C10 7.56834 9.99498 7.54313 9.98525 7.51959C9.9755 7.49607 9.96124 7.47471 9.94324 7.45669C9.92523 7.4387 9.90388 7.42441 9.88037 7.41466C9.85684 7.40493 9.83165 7.3999 9.8062 7.3999Z" fill="#00A550"/>
</svg>
