<svg width="24" height="20" viewBox="0 0 24 20" fill="none" xmlns="http://www.w3.org/2000/svg">
<path d="M22.3147 5.54883H21.6574V12.7737C21.6574 13.8986 21.0024 14.9157 19.6894 14.9157H6.8252V15.2592C6.8252 16.2537 7.95634 17.2576 9.11794 17.2576H18.9532L22.7159 19.47L22.1702 17.2576H22.3147C23.4755 17.2576 23.9993 16.2561 23.9993 15.2592V7.26389C23.9993 6.26936 23.4755 5.54883 22.3147 5.54883Z" fill="#231F20"/>
<path d="M17.7689 0.529297H2.82748C1.51288 0.529297 0 1.69713 0 2.82282V11.8782C0 12.9149 1.28181 13.6636 2.51132 13.7791L1.71116 16.8166L6.83841 13.8002H17.7689C19.0835 13.8002 20.2966 13.0031 20.2966 11.8782V4.55194V2.82282C20.2966 1.69713 19.0827 0.529297 17.7689 0.529297ZM5.10695 8.17333C4.36144 8.17333 3.75722 7.56911 3.75722 6.8236C3.75722 6.07809 4.36144 5.47387 5.10695 5.47387C5.85168 5.47387 6.45667 6.07809 6.45667 6.8236C6.45667 7.56911 5.85168 8.17333 5.10695 8.17333ZM10.1483 8.17333C9.40281 8.17333 8.79859 7.56911 8.79859 6.8236C8.79859 6.07809 9.40281 5.47387 10.1483 5.47387C10.8938 5.47387 11.498 6.07809 11.498 6.8236C11.498 7.56911 10.8938 8.17333 10.1483 8.17333ZM15.1905 8.17333C14.445 8.17333 13.84 7.56911 13.84 6.8236C13.84 6.07809 14.445 5.47387 15.1905 5.47387C15.9344 5.47387 16.5402 6.07809 16.5402 6.8236C16.5402 7.56911 15.9344 8.17333 15.1905 8.17333Z" fill="#231F20"/>
</svg>
