<svg width="8" height="10" viewBox="0 0 8 10" fill="none" xmlns="http://www.w3.org/2000/svg">
<path fill-rule="evenodd" clip-rule="evenodd" d="M3.23799 6.00712V9.95H4.57132V6.00712H8V4.47378H4.57132V0.75H3.23799V4.47378H0V6.00712H3.23799Z" fill="white"/>
</svg>
