<svg width="180" height="180" viewBox="0 0 180 180" fill="none" xmlns="http://www.w3.org/2000/svg">
<g opacity="0.3">
<circle cx="6.92307" cy="6.92307" r="6.92307" fill="white"/>
<circle cx="6.92307" cy="34.6176" r="6.92307" fill="white"/>
<circle cx="6.92307" cy="62.3044" r="6.92307" fill="white"/>
<circle cx="6.92307" cy="89.9991" r="6.92307" fill="white"/>
<circle cx="6.92307" cy="117.694" r="6.92307" fill="white"/>
<circle cx="6.92307" cy="145.384" r="6.92307" fill="white"/>
<circle cx="6.92307" cy="173.075" r="6.92307" fill="white"/>
<circle cx="34.6137" cy="6.92307" r="6.92307" fill="white"/>
<circle cx="34.6137" cy="34.6176" r="6.92307" fill="white"/>
<circle cx="34.6137" cy="62.3044" r="6.92307" fill="white"/>
<circle cx="34.6137" cy="89.9991" r="6.92307" fill="white"/>
<circle cx="34.6137" cy="117.694" r="6.92307" fill="white"/>
<circle cx="34.6137" cy="145.384" r="6.92307" fill="white"/>
<circle cx="62.3084" cy="6.92307" r="6.92307" fill="white"/>
<circle cx="62.3084" cy="34.6176" r="6.92307" fill="white"/>
<circle cx="62.3084" cy="62.3044" r="6.92307" fill="white"/>
<circle cx="62.3084" cy="89.9991" r="6.92307" fill="white"/>
<circle cx="62.3084" cy="117.694" r="6.92307" fill="white"/>
<circle cx="89.9991" cy="6.92307" r="6.92307" fill="white"/>
<circle cx="89.9991" cy="34.6176" r="6.92307" fill="white"/>
<circle cx="89.9991" cy="62.3044" r="6.92307" fill="white"/>
<circle cx="89.9991" cy="89.9991" r="6.92307" fill="white"/>
<circle cx="117.692" cy="6.92307" r="6.92307" fill="white"/>
<circle cx="117.692" cy="34.6176" r="6.92307" fill="white"/>
<circle cx="117.692" cy="62.3044" r="6.92307" fill="white"/>
<circle cx="145.384" cy="6.92307" r="6.92307" fill="white"/>
<circle cx="145.384" cy="34.6176" r="6.92307" fill="white"/>
<circle cx="173.077" cy="6.92307" r="6.92307" fill="white"/>
</g>
</svg>
