<svg class="svg svg-notification" viewBox="0 0 50 50" fill="none" xmlns="http://www.w3.org/2000/svg">
<circle cx="25" cy="25.5" r="25" fill="#57A8FF"/>
<path d="M37.896 30.8335C35.8171 29.0902 34.625 26.5421 34.625 23.8427V20.0399C34.625 15.2401 31.0308 11.2667 26.375 10.6011C24.7851 10.3737 23.625 10.6011 23.625 10.6011C18.9677 11.2667 15.375 15.2401 15.375 20.0399V23.8427C15.375 26.5421 14.1829 29.0902 12.0914 30.8442C11.5567 31.2985 11.25 31.9586 11.25 32.6569C11.25 33.9734 12.3293 35.0441 13.6562 35.0441H36.3436C37.6707 35.0441 38.75 33.9734 38.75 32.6569C38.75 31.9586 38.4433 31.2985 37.896 30.8335Z" fill="white"/>
<path d="M24.998 40.5002C27.4883 40.5002 29.5714 38.7392 30.0498 36.4082H19.9463C20.4249 38.7392 22.508 40.5002 24.998 40.5002Z" fill="white"/>
</svg>
